{
 "add_total_row": 1,
 "creation": "2019-11-11 15:12:53.976155",
 "disable_prepared_report": 0,
 "disabled": 0,
 "docstatus": 0,
 "doctype": "Report",
 "idx": 0,
 "is_standard": "Yes",
 "modified": "2019-11-12 20:44:50.621693",
 "modified_by": "Administrator",
 "module": "Property Management Solution",
 "name": "Debtors Report",
 "owner": "Administrator",
 "prepared_report": 0,
 "query": "SELECT \tsi.name AS \"Invoice No:Link/Sales Invoice:150\", \r\n\t\tsi.cost_center AS \"Cost Center:Link/Cost Center:180\", \r\n\t\tsi.customer AS \"Customer:Link/Customer:150\", \r\n\t\tGROUP_CONCAT(sid.item_name) AS \"Items:Data:200\",\r\n\t\tsi.from_date AS \"From Date:Date:100\", \r\n\t\tsi.to_date AS \"To Date:Date:100\", \r\n\t\tsi.due_date AS \"Due Date:Date:100\", \r\n\t\tROUND(IF(si.currency = \"USD\", IF( si.currency = si.party_account_currency, si.outstanding_amount, si.outstanding_amount/si.conversion_rate), 0),2) AS \"USD:Float:100\",\r\n\t\tROUND(IF(si.currency = \"TZS\", IF( si.currency = si.party_account_currency, si.outstanding_amount, si.outstanding_amount*si.conversion_rate), 0),2) AS \"TZS:Float:100\",\r\n\t\tsi._user_tags as \"Remarks:Data:200\"\r\nFROM `tabSales Invoice` si LEFT JOIN `tabSales Invoice Item` as sid ON si.name = sid.parent\r\nWHERE si.status IN (\"Sumitted\", \"Unpaid\", \"Overdue\")\r\nGROUP BY si.name",
 "ref_doctype": "Sales Invoice",
 "report_name": "Debtors Report",
 "report_type": "Query Report",
 "roles": [
  {
   "role": "Accounts Manager"
  },
  {
   "role": "Accounts User"
  }
 ]
}